<?xml version="1.0" encoding="utf-8"?>
<!-- Generator: Adobe Illustrator 19.0.0, SVG Export Plug-In . SVG Version: 6.00 Build 0)  -->
<svg version="1.1" id="Layer_1" xmlns="http://www.w3.org/2000/svg" xmlns:xlink="http://www.w3.org/1999/xlink" x="0px" y="0px"
	 viewBox="0 0 52 52" style="enable-background:new 0 0 52 52;" xml:space="preserve">
<style type="text/css">
	.st0{fill:#231F20;}
</style>
<path id="XMLID_6_" class="st0" d="M35.6,49.9H16.4C7.9,49.9,1,42.9,1,34.4V17.6C1,9,7.9,2.1,16.4,2.1h19.2C44.1,2.1,51,9,51,17.6
	v16.9C51,42.9,44.1,49.9,35.6,49.9 M16.4,5.6c-6.6,0-12,5.4-12,12v16.9c0,6.6,5.4,12,12,12h19.2c6.6,0,12-5.4,12-12V17.6
	c0-6.6-5.4-12-12-12H16.4z"/>
<path id="XMLID_3_" class="st0" d="M26,39.7c-7.6,0-13.7-6.2-13.7-13.7c0-7.6,6.2-13.7,13.7-13.7c7.6,0,13.7,6.2,13.7,13.7
	C39.7,33.6,33.6,39.7,26,39.7 M26,15.7c-5.7,0-10.3,4.6-10.3,10.3c0,5.7,4.6,10.3,10.3,10.3c5.7,0,10.3-4.6,10.3-10.3
	C36.3,20.3,31.7,15.7,26,15.7"/>
<path id="XMLID_2_" class="st0" d="M42.4,12.7c0,1.6-1.3,2.8-2.8,2.8c-1.6,0-2.8-1.3-2.8-2.8c0-1.6,1.3-2.8,2.8-2.8
	C41.1,9.8,42.4,11.1,42.4,12.7"/>
</svg>
