<?xml version="1.0" encoding="utf-8"?>
<!-- Generator: Adobe Illustrator 19.0.0, SVG Export Plug-In . SVG Version: 6.00 Build 0)  -->
<svg version="1.1" id="Layer_1" xmlns="http://www.w3.org/2000/svg" xmlns:xlink="http://www.w3.org/1999/xlink" x="0px" y="0px"
	 viewBox="0 0 364 364" style="enable-background:new 0 0 364 364;" xml:space="preserve">
<style type="text/css">
	.st0{fill:#FEBF10;}
	.st1{fill:#EE2724;}
	.st2{fill:#412765;}
</style>
<path id="XMLID_11_" class="st0" d="M220.2,35.7c54.1,13.7,96.8,56.4,110.5,110.5H345C330.8,84.4,282,35.6,220.2,21.4V35.7z"/>
<path id="XMLID_10_" class="st1" d="M144.9,331.5c-54.9-14.1-98-58-110.8-113.4H19.8c13.3,63.1,62.5,113.1,125.1,127.7V331.5z"/>
<path id="XMLID_9_" class="st2" d="M294.8,182.1c0-21.1-17.2-38.3-38.3-38.3h-42.1l-14.1,17.4h52c11.7,0,21.2,9.5,21.2,21.2
	c0,11.7-9.5,21.2-21.2,21.2h-10.1h-2.3v-2.3V174h-23.5v46.5h40.2C277.6,220.4,294.8,203.2,294.8,182.1"/>
<rect id="XMLID_8_" x="81" y="174" class="st2" width="23.4" height="46.5"/>
<path id="XMLID_7_" class="st2" d="M142.9,143.7c-10.6,0-19.9,7.3-22.6,17.4h24.4h38.4l14.3-17.4H142.9z"/>
<path id="XMLID_6_" class="st2" d="M200,197.2c0-12.8-10.4-23.2-23.2-23.2h-32c-0.2,0-0.4,0-0.6,0h-23.6c2.9,9.8,12,16.6,22.4,16.6
	h30.8c3.5,0,6.4,2.9,6.4,6.4c0,3.5-2.9,6.4-6.4,6.4h-40l-14.2,17h57.2C189.5,220.4,200,210,200,197.2"/>
<path id="XMLID_5_" class="st2" d="M23.2,162.7c-10.7,0-19.4,8.7-19.4,19.4c0,10.7,8.7,19.4,19.4,19.4c10.7,0,19.4-8.7,19.4-19.4
	C42.5,171.4,33.9,162.7,23.2,162.7"/>
<path id="XMLID_4_" class="st2" d="M340.4,162.7c-10.7,0-19.4,8.7-19.4,19.4c0,10.7,8.7,19.4,19.4,19.4c10.7,0,19.4-8.7,19.4-19.4
	C359.8,171.4,351.1,162.7,340.4,162.7"/>
<path id="XMLID_3_" class="st2" d="M162.4,340.7c0,10.7,8.7,19.4,19.4,19.4c10.7,0,19.4-8.7,19.4-19.4c0-10.7-8.7-19.4-19.4-19.4
	C171.1,321.3,162.4,330,162.4,340.7"/>
<path id="XMLID_2_" class="st2" d="M162.4,23.5c0,10.7,8.7,19.4,19.4,19.4c10.7,0,19.4-8.7,19.4-19.4c0-10.7-8.7-19.4-19.4-19.4
	C171.1,4.1,162.4,12.8,162.4,23.5"/>
<path id="XMLID_1_" class="st2" d="M104.9,153.3c0-6.8-5.5-12.2-12.2-12.2c-6.8,0-12.2,5.5-12.2,12.2c0,6.8,5.5,12.2,12.2,12.2
	C99.4,165.5,104.9,160,104.9,153.3"/>
</svg>
