<?xml version="1.0" encoding="utf-8"?>
<!-- Generator: Adobe Illustrator 19.0.0, SVG Export Plug-In . SVG Version: 6.00 Build 0)  -->
<svg version="1.1" id="Layer_1" xmlns="http://www.w3.org/2000/svg" xmlns:xlink="http://www.w3.org/1999/xlink" x="0px" y="0px"
	 viewBox="0 0 364 364" style="enable-background:new 0 0 364 364;" xml:space="preserve">
<style type="text/css">
	.st0{fill:#FEBF10;}
	.st1{fill:#EE2724;}
	.st2{fill:#4F2B76;}
</style>
<path id="XMLID_24_" class="st0" d="M220.7,34c54.7,13.8,97.8,57,111.7,111.7h14.5C332.4,83.2,283.2,33.9,220.7,19.5V34z"/>
<path id="XMLID_23_" class="st1" d="M144.6,332.9c-55.5-14.2-99-58.6-112-114.6H18.1c13.5,63.8,63.2,114.3,126.5,129.1V332.9z"/>
<path id="XMLID_22_" class="st2" d="M21.6,162.4c-10.8,0-19.6,8.8-19.6,19.6s8.8,19.6,19.6,19.6c10.8,0,19.6-8.8,19.6-19.6
	S32.3,162.4,21.6,162.4"/>
<path id="XMLID_21_" class="st2" d="M342.2,162.4c-10.8,0-19.6,8.8-19.6,19.6s8.8,19.6,19.6,19.6c10.8,0,19.6-8.8,19.6-19.6
	S353,162.4,342.2,162.4"/>
<path id="XMLID_20_" class="st2" d="M162.3,342.2c0,10.8,8.8,19.6,19.6,19.6s19.6-8.8,19.6-19.6c0-10.8-8.8-19.6-19.6-19.6
	S162.3,331.5,162.3,342.2"/>
<path id="XMLID_19_" class="st2" d="M162.3,21.6c0,10.8,8.8,19.6,19.6,19.6s19.6-8.8,19.6-19.6c0-10.8-8.8-19.6-19.6-19.6
	S162.3,10.8,162.3,21.6"/>
<path id="XMLID_18_" class="st2" d="M200.2,177.6c0-12.9-10.5-23.5-23.5-23.5h-32.4c-0.2,0-0.4,0-0.6,0H120
	c3,9.9,12.1,16.8,22.6,16.8h31.1c3.6,0,6.5,2.9,6.5,6.5c0,3.6-2.9,6.5-6.5,6.5h-40.4l-14.4,17.2h57.9
	C189.7,201.1,200.2,190.6,200.2,177.6"/>
<path id="XMLID_17_" class="st2" d="M296.1,162.3c0-21.4-17.4-38.7-38.8-38.7h-42.6l-14.2,17.5h52.6c11.8,0,21.4,9.6,21.4,21.4
	c0,11.8-9.6,21.4-21.4,21.4h-10.2h-2.4v-2.4v-27.4h-23.8v46.9h40.6C278.7,201.1,296.1,183.7,296.1,162.3"/>
<path id="XMLID_16_" class="st2" d="M142.6,123.6c-10.7,0-20.1,7.4-22.8,17.5h24.6h38.8l14.4-17.5H142.6z"/>
<rect id="XMLID_15_" x="80" y="154.1" class="st2" width="23.7" height="46.9"/>
<path id="XMLID_14_" class="st2" d="M104.2,133.2c0-6.8-5.5-12.4-12.4-12.4c-6.8,0-12.4,5.5-12.4,12.4c0,6.8,5.5,12.4,12.4,12.4
	C98.6,145.6,104.2,140.1,104.2,133.2"/>
<polygon id="XMLID_13_" class="st2" points="106.1,222.5 106.1,230 95.4,230 95.4,238.6 104.4,238.6 104.4,246.3 95.4,246.3 
	95.4,263.7 86.9,263.7 86.9,222.5 "/>
<path class="st2" d="M122.7,264.2h-1.4c-7.9,0-11.3-4.4-11.3-11.6v-19.1c0-7.2,3.4-11.5,11.3-11.5h1.4c7.9,0,11.3,4.3,11.3,11.5
	v19.1C134,259.9,130.3,264.2,122.7,264.2 M122,229.5c-2.1,0-3.1,1.2-3.1,4.2v19c0,2.7,1,4.1,3.1,4.1c2.1,0,3.2-1.4,3.2-4.1v-19
	C125.1,230.7,124,229.5,122,229.5"/>
<path class="st2" d="M152,264.2h-1.4c-7.9,0-11.3-4.4-11.3-11.6v-19.1c0-7.2,3.4-11.5,11.3-11.5h1.4c7.9,0,11.3,4.3,11.3,11.5v19.1
	C163.3,259.9,159.7,264.2,152,264.2 M151.3,229.5c-2.1,0-3.1,1.2-3.1,4.2v19c0,2.7,1,4.1,3.1,4.1c2.1,0,3.2-1.4,3.2-4.1v-19
	C154.5,230.7,153.4,229.5,151.3,229.5"/>
<polygon id="XMLID_8_" class="st2" points="173.6,263.7 173.6,230 167,230 167,222.5 188.7,222.5 188.7,230 182.2,230 182.2,263.7 
	"/>
<path class="st2" d="M207.3,222.5c6.3,0,8.7,2.5,8.7,8.4v3.1c0,4.6-2.2,6.4-4,7.1c2,0.7,4.8,2.4,4.8,7.7v5.5c0,5.9-3.1,9.4-9.3,9.4
	h-14.4v-41.2H207.3z M201.7,238.7h2.9c2.2,0,3-1.1,3-3.6v-2.8c0-2.5-0.8-3.4-3.1-3.4h-2.9V238.7z M201.7,257.1h3.1
	c2.4,0,3.2-1,3.2-3.6v-4.5c0-2.6-0.9-3.7-3.3-3.7h-3V257.1z"/>
<path class="st2" d="M235.3,256.8h-7.1l-1.1,6.9h-7.6l6.8-41.2h11.2l7.3,41.2h-8.4L235.3,256.8z M229.3,249.9h5l-1.2-8
	c-0.7-4.4-1.1-7.5-1.3-10c-0.2,2.4-0.7,5.6-1.3,10L229.3,249.9z"/>
<polygon id="XMLID_2_" class="st2" points="257.3,222.5 257.3,255.8 267,255.8 267,263.7 248.6,263.7 248.6,222.5 "/>
<polygon id="XMLID_1_" class="st2" points="280.2,222.5 280.2,255.8 289.9,255.8 289.9,263.7 271.5,263.7 271.5,222.5 "/>
</svg>
