<?xml version="1.0" encoding="utf-8"?>
<!-- Generator: Adobe Illustrator 19.0.0, SVG Export Plug-In . SVG Version: 6.00 Build 0)  -->
<svg version="1.1" id="Layer_1" xmlns="http://www.w3.org/2000/svg" xmlns:xlink="http://www.w3.org/1999/xlink" x="0px" y="0px"
	 viewBox="0 0 480 112" style="enable-background:new 0 0 480 112;" xml:space="preserve">
<style type="text/css">
	.st0{fill:#010101;}
	.st1{fill:#FFFFFF;}
	.st2{fill:#9C3995;}
	.st3{fill:#0C65B1;}
	.st4{fill:#0F99D6;}
	.st5{fill:#0EAF58;}
	.st6{fill:#FEDA00;}
	.st7{fill:#F68A2C;}
	.st8{fill:#EF3A39;}
	.st9{font-family:'CoreSansC-35Light';}
	.st10{font-size:39.6023px;}
	.st11{letter-spacing:-1;}
</style>
<rect id="XMLID_43_" x="250.3" y="72.7" class="st0" width="229.6" height="1.4"/>
<path id="XMLID_42_" class="st1" d="M38,26.6c-7.2,0-13.1,5.9-13.1,13.1c0,7.2,5.9,13.1,13.1,13.1c7.2,0,13.1-5.9,13.1-13.1
	C51.1,32.5,45.2,26.6,38,26.6"/>
<polygon id="XMLID_41_" class="st0" points="110.6,54.8 90.4,54.8 90.4,19.7 99.6,19.7 99.6,46.8 110.6,46.8 "/>
<path id="XMLID_38_" class="st0" d="M127.4,34c-4.1,0-6.7,3-6.7,6.7c0,3.9,2.5,7.1,6.4,7.1c3.8,0,6.9-2.8,6.9-6.9
	C134.1,36.8,131.2,34,127.4,34 M112.1,40.9c0-7.8,5.8-14.8,13.6-14.8c3.4,0,5.6,1.1,8.1,3.4v-2.9h8.4v28.2h-8.5v-2.8
	c0,0-3.1,3.4-8.4,3.4C117.5,55.5,112.1,49.9,112.1,40.9"/>
<polygon id="XMLID_37_" class="st0" points="167.4,54.8 147.2,54.8 147.2,19.7 156.4,19.7 156.4,46.8 167.4,46.8 "/>
<path id="XMLID_34_" class="st0" d="M179.7,54.8h-8.5V26.7h8.5V54.8z M170.4,19.5c0-2.8,2.3-5.2,5.1-5.2c2.8,0,5.2,2.2,5.2,5.1
	c0,2.9-2.3,5.2-5.3,5.2C172.6,24.6,170.4,22.4,170.4,19.5"/>
<path id="XMLID_31_" class="st0" d="M197.5,33.4c-4,0-5.9,3.3-5.9,6.7c0,3.6,2.1,6.6,5.9,6.6c4.2,0,6.5-3.4,6.5-6.6
	C204,36.4,201.9,33.4,197.5,33.4 M183.3,40.2c0-7.6,4.8-14.1,12.2-14.1c3.6,0,6,1.1,8.4,3.7v-3.2h8.1v24.8c0,8.7-6.5,13.3-14.4,13.3
	c-6.9,0-12.9-3.5-13.8-9.8h9.5c1.2,1.9,2.4,2.3,4.5,2.3c3,0,5.7-1.4,5.7-4.4c0-0.7,0-1.4,0-2.1c-1.6,1.5-4.7,3.3-8,3.3
	C188.3,53.9,183.3,47.9,183.3,40.2"/>
<path id="XMLID_28_" class="st0" d="M231.1,34c-4.1,0-6.7,3-6.7,6.7c0,3.9,2.5,7.1,6.4,7.1c3.8,0,6.9-2.8,6.9-6.9
	C237.7,36.8,234.8,34,231.1,34 M215.8,40.9c0-7.8,5.8-14.8,13.6-14.8c3.4,0,5.6,1.1,8.1,3.4v-2.9h8.4v28.2h-8.5v-2.8
	c0,0-3.1,3.4-8.4,3.4C221.1,55.5,215.8,49.9,215.8,40.9"/>
<path id="XMLID_27_" class="st2" d="M10.8,16.9c-0.1,0.1-0.1,0.3,0,0.5c0,0.1,0.1,0.1,0.2,0.1l13.6,7.9l0,0c0.1,0.1,0.3,0.1,0.5,0
	c0,0,0.1-0.1,0.1-0.1c0,0,0,0,0-0.1c1.3-2.2,3-4.2,5.2-5.8c2.2-1.6,4.7-2.6,7.2-3c0,0,0,0,0.1,0c0.1,0,0.1,0,0.2-0.1
	c0.1-0.1,0.2-0.3,0.2-0.4l0,0L35.2,0.4l0,0c0-0.1,0-0.1-0.1-0.2C35,0,34.9,0,34.7,0c0,0,0,0,0,0c-4.8,0.9-9.6,2.8-13.9,5.8
	C16.6,8.8,13.2,12.7,10.8,16.9"/>
<path id="XMLID_26_" class="st3" d="M3,46.9C3,47,3.2,47.1,3.3,47.2c0.1,0,0.2,0,0.2,0l14.7-5.7l0,0c0.1-0.1,0.3-0.2,0.3-0.4
	c0-0.1,0-0.1,0-0.2c0,0,0,0,0-0.1c-1-2.4-1.4-5-1.2-7.7c0.2-2.7,0.9-5.3,2.2-7.5c0,0,0,0,0,0c0-0.1,0-0.1,0-0.2
	c0-0.2-0.1-0.3-0.2-0.4l0,0L5.4,17.5l0,0c-0.1,0-0.1,0-0.2,0c-0.2,0-0.3,0.1-0.4,0.2c0,0,0,0,0,0l0,0C2.4,22,0.9,26.9,0.6,32.1
	C0.3,37.3,1.2,42.3,3,46.9"/>
<path id="XMLID_25_" class="st4" d="M21.7,71.5c0.2,0,0.3,0,0.4-0.1c0.1-0.1,0.1-0.1,0.1-0.2l4.7-15.1l0,0c0-0.2,0-0.3-0.1-0.4
	c0,0-0.1-0.1-0.1-0.1c0,0,0,0-0.1,0c-2.5-0.7-4.8-2-6.8-3.8c-2-1.8-3.6-4-4.6-6.4c0,0,0,0,0,0c0-0.1-0.1-0.1-0.1-0.1
	C15,45,14.8,45,14.6,45.1l0,0L0.1,51.4l0,0C0,51.4,0,51.4,0,51.5c-0.1,0.1-0.1,0.3-0.1,0.4c0,0,0,0,0,0v0c1.9,4.5,4.9,8.7,8.8,12.2
	C12.5,67.7,17,70.1,21.7,71.5"/>
<path id="XMLID_24_" class="st5" d="M52.5,72.3c0.1-0.1,0.2-0.3,0.2-0.4c0-0.1,0-0.1-0.1-0.2l-8.8-13.1l0,0
	c-0.1-0.1-0.3-0.2-0.4-0.2c-0.1,0-0.1,0-0.2,0.1c0,0,0,0-0.1,0c-2.1,1.5-4.6,2.5-7.3,2.9c-2.7,0.4-5.4,0.3-7.8-0.5c0,0,0,0-0.1,0
	c-0.1,0-0.1,0-0.2,0c-0.2,0-0.3,0.2-0.4,0.3l0,0l-4.2,15.2l0,0c0,0.1,0,0.1,0,0.2c0,0.2,0.1,0.3,0.3,0.3c0,0,0,0,0,0h0
	c4.7,1.3,9.8,1.7,15,0.8C43.7,77,48.4,75,52.5,72.3"/>
<path id="XMLID_23_" class="st6" d="M72.5,48.8c0-0.2-0.1-0.3-0.2-0.4c-0.1,0-0.1-0.1-0.2-0.1l-15.7-1.2l0,0c-0.2,0-0.3,0.1-0.4,0.2
	c0,0,0,0.1-0.1,0.1c0,0,0,0.1,0,0.1c-0.2,2.6-0.9,5.1-2.2,7.5c-1.3,2.4-3.1,4.4-5.2,5.9c0,0,0,0,0,0c0,0-0.1,0.1-0.1,0.1
	c-0.1,0.2-0.1,0.3,0,0.5l0,0l9.3,12.7l0,0c0,0.1,0.1,0.1,0.1,0.1c0.1,0.1,0.3,0.1,0.4,0c0,0,0,0,0,0h0c4-2.9,7.4-6.7,10-11.3
	C70.8,58.5,72.2,53.6,72.5,48.8"/>
<path id="XMLID_22_" class="st7" d="M66.6,18.4c-0.1-0.1-0.3-0.1-0.4-0.1c-0.1,0-0.1,0.1-0.2,0.1L55.1,29.9l0,0
	c-0.1,0.1-0.1,0.3-0.1,0.5c0,0.1,0.1,0.1,0.1,0.1c0,0,0,0,0.1,0c1.9,1.7,3.4,3.9,4.4,6.4c1,2.5,1.4,5.2,1.3,7.7c0,0,0,0,0,0.1
	c0,0.1,0,0.1,0,0.2c0.1,0.2,0.2,0.3,0.4,0.3h0L77,46h0c0.1,0,0.1,0,0.2,0c0.2-0.1,0.2-0.2,0.3-0.4c0,0,0,0,0,0
	c0.3-4.9-0.5-10-2.5-14.8C73.1,25.9,70.1,21.7,66.6,18.4"/>
<path id="XMLID_21_" class="st8" d="M39,4.3c-0.2,0-0.3,0.1-0.3,0.3c0,0.1,0,0.1,0,0.2l2.3,15.6l0,0c0,0.2,0.1,0.3,0.3,0.3
	c0.1,0,0.1,0,0.2,0c0,0,0,0,0.1,0c2.5-0.4,5.2-0.3,7.8,0.5c2.6,0.8,4.9,2.1,6.9,3.8c0,0,0,0,0,0c0,0,0.1,0.1,0.1,0.1
	c0.2,0,0.3,0,0.4-0.1l0,0l10.3-11.9l0,0c0,0,0.1-0.1,0.1-0.2c0-0.2,0-0.3-0.1-0.4c0,0,0,0,0,0h0c-3.7-3.2-8.2-5.8-13.2-7.2
	C48.9,3.8,43.8,3.5,39,4.3"/>
<path id="XMLID_18_" class="st0" d="M47.5,47c0.2-0.5,0.3-1.1,0.3-1.6c-0.3,0.2-0.5,0.5-0.9,0.7c-0.9,0.7-1.9,1.1-2.8,1.3l-2.5-2.8
	l0,0l1.8,3.2c-0.5,0.8-1.2,1.6-2.1,2.3c-0.3,0.2-0.6,0.4-0.9,0.6c0.5,0.1,1.1,0.2,1.6,0.2c-1.3,0.5-2.6,0.7-4,0.7
	c-1.4,0-2.8-0.2-4-0.7c0.6,0,1.2-0.1,1.6-0.2c-0.3-0.2-0.6-0.4-0.9-0.6c-0.9-0.7-1.6-1.5-2.1-2.3l1.8-3.2l0,0l-2.5,2.8
	c-0.9-0.2-1.9-0.6-2.8-1.3c-0.3-0.2-0.6-0.5-0.8-0.7c0.1,0.5,0.1,1.1,0.3,1.6c-1.6-2-2.5-4.6-2.5-7.4c0-0.1,0-0.3,0-0.4
	c0.1,0.6,0.5,1.1,0.7,1.6c0.1-0.4,0.2-0.7,0.3-1.1c0.3-1.1,0.9-2,1.6-2.7l3.6,0.7l0,0l-3.4-1.5c-0.1-0.9,0-2,0.3-3
	c0.1-0.4,0.3-0.7,0.4-1c-0.5,0.2-1.1,0.5-1.5,0.9c1.6-2.4,4-4.1,6.7-4.9c-0.5,0.3-1,0.8-1.3,1.2c0.4,0,0.7-0.1,1.1-0.1
	c1.1,0,2.2,0.2,3,0.6l0.4,3.7h0l0.4-3.7c0.9-0.4,1.9-0.6,3-0.6c0.4,0,0.7,0,1.1,0.1c-0.4-0.4-0.8-0.9-1.3-1.2
	c2.8,0.8,5.2,2.5,6.7,4.9c-0.5-0.4-1.1-0.7-1.5-0.9c0.2,0.3,0.3,0.7,0.4,1c0.3,1.1,0.4,2.1,0.3,3.1l-3.4,1.5l0,0l3.6-0.7
	c0.7,0.7,1.2,1.6,1.5,2.7c0.1,0.4,0.2,0.7,0.3,1.1c0.2-0.4,0.6-1,0.7-1.6c0,0.1,0,0.3,0,0.4C50,42.4,49.1,45,47.5,47 M38,26.6
	c-7.2,0-13.1,5.9-13.1,13.1c0,7.2,5.9,13.1,13.1,13.1c7.2,0,13.1-5.9,13.1-13.1C51.1,32.5,45.2,26.6,38,26.6"/>
<polygon id="XMLID_17_" class="st0" points="32.7,37.9 34.7,44.1 41.3,44.1 43.3,37.9 38,34.1 "/>
<path id="XMLID_14_" class="st0" d="M277.4,54.8l-1.8-9.7h-16.1l-5.5,9.7h-3.9l20.4-35.1h3.9l6.8,35.1H277.4z M271.8,23.6
	l-10.5,18.5h13.9L271.8,23.6z"/>
<path id="XMLID_13_" class="st0" d="M286.2,44.4c0-0.9,0.1-1.7,0.3-2.6c1.5-7.4,8.5-13.6,16.5-13.6c3.7,0,6.7,1.4,8.7,3.5l-2.3,2.7
	c-1.6-1.9-4-3.2-7-3.2c-5.9,0-11.3,4.8-12.4,10.5c-0.1,0.7-0.2,1.4-0.2,2.1c0,4.8,3.4,8.5,8.5,8.5c3.1,0,6.1-1.4,8.5-3.5l1.6,2.5
	c-2.9,2.5-6.7,4-10.6,4C290.6,55.4,286.2,50.6,286.2,44.4"/>
<path id="XMLID_10_" class="st0" d="M338.1,32.7l0.8-3.9h3.4l-5,26h-3.4l0.8-3.9c-2.9,2.8-6.7,4.5-10.6,4.5
	c-6.7,0-10.9-4.8-10.9-10.9c0-0.9,0.1-1.8,0.3-2.7c1.4-7.3,8.3-13.6,16-13.6C333.2,28.2,336.3,29.9,338.1,32.7 M335.4,46.7l1.9-9.7
	c-1.1-3.4-4-5.7-8.1-5.7c-5.9,0-11.3,4.8-12.4,10.5c-0.1,0.7-0.2,1.4-0.2,2.1c0,4.8,3.4,8.5,8.5,8.5C329.2,52.3,333,50,335.4,46.7"
	/>
<path id="XMLID_7_" class="st0" d="M370.3,32.7l2.8-14.6h3.4l-7.1,36.7H366l0.8-3.9c-2.9,2.8-6.7,4.5-10.6,4.5
	c-6.7,0-10.9-4.8-10.9-10.9c0-0.9,0.1-1.8,0.3-2.7c1.4-7.3,8.3-13.6,16-13.6C365.4,28.2,368.5,29.9,370.3,32.7 M367.5,46.7l1.9-9.7
	c-1.1-3.4-4-5.7-8.1-5.7c-5.9,0-11.3,4.8-12.4,10.5c-0.1,0.7-0.2,1.4-0.2,2.1c0,4.8,3.4,8.5,8.5,8.5C361.3,52.3,365.2,50,367.5,46.7
	"/>
<path id="XMLID_4_" class="st0" d="M380.9,44.1c0,4.7,3.3,8.3,8.5,8.3c3.4,0,6.8-1.6,9.5-4.1l1.9,2.2c-3.2,3.1-7.4,4.9-11.9,4.9
	c-7.2,0-11.5-4.7-11.5-10.8c0-0.9,0.1-1.8,0.3-2.8c1.5-7.5,8.4-13.6,16.2-13.6c6.7,0,10.7,4.5,10.7,10.3c0,0.9-0.1,1.7-0.3,2.6
	c-0.1,0.6-0.3,1.2-0.5,1.7h-22.8C380.9,43.2,380.9,43.7,380.9,44.1 M381.7,39.9H401c0-0.3,0.1-0.6,0.1-0.9c0-4.6-3-7.9-7.8-7.9
	C388.2,31.1,383.3,35.1,381.7,39.9"/>
<path id="XMLID_3_" class="st0" d="M410.8,54.8h-3.4l5-26h3.4l-0.9,4.7c2.1-2.6,5.4-5.3,9.4-5.3c4.2,0,7,2.5,7.6,6
	c2.6-3.4,6.3-6,10.4-6c4.9,0,7.9,3.2,7.9,7.8c0,0.7-0.1,1.5-0.2,2.3l-3.2,16.5h-3.4l3.2-16.3c0.1-0.6,0.2-1.1,0.2-1.7
	c0-3.2-2-5.6-5.5-5.6c-3.5,0-6.8,3-9.1,6.2c0,0.3-0.1,0.6-0.1,0.8l-3.2,16.5h-3.4l3.2-16.3c0.1-0.6,0.2-1.1,0.2-1.7
	c0-3.2-2-5.6-5.5-5.6c-3.6,0-6.8,3-9.1,6.2L410.8,54.8z"/>
<polygon id="XMLID_2_" class="st0" points="460.9,54.6 455.4,28.8 459,28.8 463.5,50.2 476.2,28.8 479.9,28.8 457.4,66.4 
	453.8,66.4 "/>
<text id="XMLID_44_" transform="matrix(1 0 0 1 407.7855 110.9999)"><tspan x="0" y="0" class="st0 st9 st10 st11">U</tspan><tspan x="24.9" y="0" class="st0 st9 st10">A</tspan><tspan x="51.3" y="0" class="st0 st9 st10">E</tspan></text>
</svg>
